;0
__main

;7
@Lclearscreenall

;24
@3ココロ

;36
AKT0300330

;47
What is this? How creepy...

;90
OPR0303540

;101
What's wrong?

;120
AKT0300340

;131
Ah!

;138
OPR0303550

;149
Eh?

;156
AKT0300350

;167
Hey!? Are you trying to spy or something!?

;231
OPR0303560

;242
Eh, w-well if that's how you see it,
then that's fine.

;319
AKT0300360

;330
I won't let you! See ya!

;385
OPR0303570

;396
She sure doesn't like me...

;424
OPR0303580

;435
Hm?

;442
OPR0303590

;453
This is... a charm?

;478
OPR0303600

;489
!

;493
OPR0303610

;504
!!

;511
OPR0303620

;522
The paper is the same colour
as the wall so I didn't notice...

;596
OPR0303630

;607
They're put up everywhere...

;650
OPR0303650

;661
Black ink writing on yellow paper...

;695
OPR0303660

;706
If I remember correctly, this is...

;725
OPR0303670

;736
Hm?

;746
【Charms were placed everywhere】
～Is this suspicious?～

;841
............

;854
@非科学的

