;0
__main

;7
@Lclearscreenall

;24
@4サク

;33
OPR0402980

;44
Hey...

;57
TYM0400060

;68
Hmm? Hello～.

;96
OPR0402990

;107
H-Hello... You're by yourself?

;147
TYM0400070

;158
Pretty much～.

;174
OPR0403000

;185
What are you examining?

;216
TYM0400080

;227
I'm not examining anything～

;264
OPR0403010

;275
Eh? Then what are you doing?

;306
TYM0400090

;317
The superintendents orders～
I'm reconfiguring the security system～

;388
OPR0403020

;399
Reconfiguring? What for...?

;442
TYM0400100

;453
Who knows～?
Maybe he is planning to set a trap or something～?

;511
OPR0403030

;522
Trap...?

;541
OPR0403050

;552
How exactly are you reconfiguring it?

;592
TYM0400110

;603
He told me to make it so
the elevator doesn't get stopped in an emergency～

;701
OPR0403060

;712
The elevator...

;740
OPR0403070

;751
Hm...?

;761
【Kamitsu asked to change the security】
～Is this suspicious?～

;877
............

;890
TYM0400120

;901
Is that it～? I'm busy you know～

;960
OPR0403090

;971
Ah, sorry...

;990
TYM0400130

;1001
See ya...

;1020
@予告の時間

